[
  {
    "title":"Prestidigitation",
    "content":"<p>You create one of the following effects:<ul><li>You create a harmless sensory effect.</li><li>You light or put out a small fire.</li><li>You clean or soil an object no larger than 1 cubic foot.</li><li>You chill, warm, or flavor up to 1 cubic foot of nonliving material for 1 hour.</li><li>You make a small mark appear on an object or surface for 1 hour.</li><li>You create a nonmagical trinket or a hand-sized illusory image. It lasts until the end of your next turn (~6 seconds.).</li></ul>If you cast this spell multiple times, you can have up to three of its non-instantaneous effects active at a time, and you can dismiss an effect as an action. </p>**limericks*~*<blockquote cite=\"https://www.reddit.com/r/DnD/comments/4h4ccw/anyone_have_ideas_for_limerickscouplets_that_a/d2nrjbx\"><p>Whether cleaning a mess, or addressing a nation,<br/>Never fails to impress: prestidigitation</p></blockquote><cite>– [u/Tichrimo~https://www.reddit.com/r/DnD/comments/4h4ccw/anyone_have_ideas_for_limerickscouplets_that_a/d2nrjbx]</cite>"
  },
  {
    "title":"Minor Illusion",
    "url":"Minor_Illusion",
    "content":"<p>You create a sound or an image of an object that lasts for the duration. The illusion ends early if you dismiss it as an action or cast this spell again.</p><p>If you create a sound, it can be any volume and noise. The sound can continue unabated for the duration, or you can make sounds at different times.</p><p>If you create an image of an object, it must be no larger than a 5-foot cube. The image can't create any sensory effects. Physical interaction with the image reveals it to be an illusion.</p><p>A creature can use its action to make an Investigation check on the illusion. If it succeeds, the illusion becomes faint to it.</p>**limericks*~* <blockquote cite=\"https://www.reddit.com/r/DnD/comments/4h4ccw/anyone_have_ideas_for_limerickscouplets_that_a/d2nqgg0\"><p>I hope I’m not being too cruel,</br>But I’m going to make you a fool.<br /><br />I’ve made my decision,<br />I’ll conjure a vision,<br />And I hope it will look pretty cool.</p></blockquote><cite>– [u/acegamer6~https://www.reddit.com/r/DnD/comments/4h4ccw/anyone_have_ideas_for_limerickscouplets_that_a/d2nqgg0]</cite>"
  }
]
