[
  {
    "title":"Blank",
    "url":"",
    "alias":[],
    "altListings":[{"c":"","l":""}],
    "content":"<p>Basic Description Here.</p>**Links*~*<p>[Internal Link], [Same Internal Link|Internal Link], [External Link~https://www.google.com/]</p>**Differing Headder**DifferentHeader**",
    "see":[],
    "external":[""],
    "uses":""
  },
  {
    "title":"Blank",
    "url":"",
    "alias":[],
    "altListings":[{"c":"","l":""}],
    "content":"<p>Basic Description Here.</p>**Links*~*<p>[Internal Link], [Same Internal Link|Internal Link], [External Link~https://www.google.com/]</p>**Differing Headder**DifferentHeader**",
    "see":[],
    "external":[""],
    "uses":""
  }
]
